{
  "project_info": {
    "project_number": "401498368797",
    "project_id": "fitness-app-ac76f",
    "storage_bucket": "fitness-app-ac76f.appspot.com"
  },
  "client": [
    {
      "client_info": {
        "mobilesdk_app_id": "1:401498368797:android:e04bfd4f0212738bf60ff4",
        "android_client_info": {
          "package_name": "com.example.fitness_app"
        }
      },
      "oauth_client": [
        {
          "client_id": "401498368797-l2j2107paiptqk1opici48qpkq9nt28h.apps.googleusercontent.com",
          "client_type": 3
        }
      ],
      "api_key": [
        {
          "current_key": "AIzaSyCvv8zB90vEJK9Qjcp8tTWw2-c2aQOXPgU"
        }
      ],
      "services": {
        "appinvite_service": {
          "other_platform_oauth_client": [
            {
              "client_id": "401498368797-l2j2107paiptqk1opici48qpkq9nt28h.apps.googleusercontent.com",
              "client_type": 3
            }
          ]
        }
      }
    }
  ],
  "configuration_version": "1"
}